{
    "rabbit_version": "3.8.0",
    "users": [
        {
            "name": "guest",
            "password_hash": "A7cOvaSOJ0629FXU5fQUIrPJL7WtyU5B3fxuc1fYxkKAN5T+",
            "hashing_algorithm": "rabbit_password_hashing_sha256",
            "tags": ""
        },
        {
            "name": "ezip",
            "password_hash": "FDKhh0dirmfon4YsHQXu5KIW589bFCkbaMrGg6agiE0t6sTt",
            "hashing_algorithm": "rabbit_password_hashing_sha256",
            "tags": "administrator"
        }
    ],
    "vhosts": [
        {
            "name": "/"
        },
        {
            "name": "ezip"
        }
    ],
    "permissions": [
        {
            "user": "guest",
            "vhost": "/",
            "configure": ".*",
            "write": ".*",
            "read": ".*"
        },
        {
            "user": "ezip",
            "vhost": "ezip",
            "configure": ".*",
            "write": ".*",
            "read": ".*"
        }
    ],
    "topic_permissions": [],
    "parameters": [],
    "global_parameters": [
        {
            "name": "cluster_name",
            "value": "rabbit@de2599e4f299"
        }
    ],
    "policies": [],
    "queues": [
        {
            "name": "video-conversion-queue",
            "vhost": "ezip",
            "durable": true,
            "auto_delete": false,
            "arguments": {
                "x-queue-type": "classic"
            }
        }
    ],
    "exchanges": [
        {
            "name": "video-conversion-exchange",
            "vhost": "ezip",
            "type": "direct",
            "durable": true,
            "auto_delete": false,
            "internal": false,
            "arguments": {}
        }
    ],
    "bindings": [
        {
            "source": "video-conversion-exchange",
            "vhost": "ezip",
            "destination": "video-conversion-queue",
            "destination_type": "queue",
            "routing_key": "video-conversion-queue",
            "arguments": {}
        }
    ]
}